Projekt z Analizy Danych część 2 - modele
…
write.csv(results_summary, "summary_MSE.csv", row.names = FALSE)
print(results_summary)

# A tibble: 57 × 9
   case        model min_MSE     q25 mean_MSE median_MSE     q75 max_MSE  sd_MSE
   <chr>       <chr>   <dbl>   <dbl>    <dbl>      <dbl>   <dbl>   <dbl>   <dbl>
 1 bimodal_sn… ideal 0.00883 0.00954  0.00960    0.00966 0.00971 0.00976 1.65e-4
 2 bimodal_sn… mixed 0.268   0.519    0.681      0.643   0.811   1.36    2.29e-1
 3 bimodal_sn… simp… 0.269   0.533    0.707      0.671   0.842   1.42    2.41e-1
 4 double_sno… ideal 0.00906 0.00953  0.00960    0.00963 0.00971 0.00976 1.38e-4
 5 double_sno… mixed 0.304   0.507    0.657      0.639   0.755   1.57    2.08e-1
 6 double_sno… simp… 0.304   0.528    0.679      0.663   0.773   1.58    2.14e-1
 7 double_uni… ideal 0.00905 0.00953  0.00960    0.00964 0.00971 0.00976 1.48e-4
 8 double_uni… mixed 1.67    2.35     2.50       2.49    2.67    3.19    2.65e-1
 9 double_uni… simp… 1.69    2.37     2.53       2.52    2.70    3.19    2.64e-1
10 double_uni… ideal 0.00870 0.00952  0.00960    0.00964 0.00971 0.00976 1.62e-4
# ℹ 47 more rows
…
